{
  "versionCode": "185",
  "version": "1.8.5",
  "updateDate": "2023-05-06",
  "forceUpdate": "false",
  "description": "更新内容：\n1. 新增了XXX功能\n2. 修复了XXX问题\n3. 优化了XXX体验",
  "downloadType": "3",
  "lzfolder_url": "https://wwjo.lanzouy.com/b0ez1egpg",
  "lzfolder_pwd": "1314",  
  "download_url": "https://node5.cdn.dfyun.com.cn:8888/f/N4Igzg9grgTgxgUwEIEMwJALhACwC54AOYmA9KQCYA2ATAHQC2e9cAdiADTjTwIByKBhmxManEADMAllQQAFFHhxYQpALIAVegEYAzHQAsdFIQDWIAL5A===/MT2.13.4.apk?_ex=1685548799&_si=7c7bfe0b09",
  "ApkMD5": "6e8cdbcc5626de6b1b00e1ea5b9b090e"
}